Tutorial 5 - Soccer
…
Now lets dive into the data available for one of the competitions -
the 2023 Womens World Cup. Lets pull the list of available
matches:

# Pull match data for one competition
matches <- comps %>% 
  filter(competition_name == "Women's World Cup", season_name == 2023) %>% 
  FreeMatches()

## [1] "Whilst we are keen to share data and facilitate research, we also urge you to be responsible with the data. Please credit StatsBomb as your data source when using the data and visit https://statsbomb.com/media-pack/ to obtain our logos for public use."

# Print
matches

## # A tibble: 64 x 42
##    match_id match_date kick_off  home_~1 away_~2 match~3 match~4 last_~5 last_~6
##       <int> <chr>      <chr>       <int>   <int> <chr>   <chr>   <chr>   <chr>  
##  1  3904629 2023-08-16 13:00:00~       1       3 availa~ availa~ 2023-0~ 2023-0~
##  2  3906390 2023-08-20 13:00:00~       1       0 availa~ availa~ 2023-0~ 2023-0~
##  3  3906389 2023-08-19 11:00:00~       2       0 availa~ availa~ 2023-0~ 2023-0~
##  4  3904628 2023-08-15 11:00:00~       2       1 availa~ availa~ 2023-0~ 2023-0~
##  5  3893806 2023-07-26 10:30:00~       5       0 availa~ availa~ 2023-0~ 2023-0~
##  6  3893801 2023-07-24 14:00:00~       4       0 availa~ availa~ 2023-0~ 2023-0~
##  7  3893797 2023-07-23 10:30:00~       1       0 availa~ availa~ 2023-0~ 2023-0~
##  8  3893822 2023-07-31 10:00:00~       4       0 availa~ availa~ 2023-0~ 2023-0~
##  9  3893814 2023-07-29 10:30:00~       5       0 availa~ availa~ 2023-0~ 2023-0~
## 10  3893790 2023-07-21 05:30:00~       0       0 availa~ availa~ 2023-0~ 2023-0~
## # ... with 54 more rows, 33 more variables: match_week <int>,
## #   competition.competition_id <int>, competition.country_name <chr>,
## #   competition.competition_name <chr>, season.season_id <int>,
## #   season.season_name <chr>, home_team.home_team_id <int>,
## #   home_team.home_team_name <chr>, home_team.home_team_gender <chr>,
## #   home_team.home_team_group <lgl>, home_team.managers <list>,
## #   home_team.country.id <int>, home_team.country.name <chr>, ...
…
# Print
events

## # A tibble: 3,719 x 158
##    id         index period times~1 minute second posse~2 durat~3 relat~4 locat~5
##    <chr>      <int>  <int> <chr>    <int>  <int>   <int>   <dbl> <list>  <list> 
##  1 2c79414c-~     1      1 00:00:~      0      0       1    0    <NULL>  <NULL> 
##  2 64b30c6c-~     2      1 00:00:~      0      0       1    0    <NULL>  <NULL> 
##  3 0d06fee4-~     3      1 00:00:~      0      0       1    0    <chr>   <NULL> 
##  4 2446a640-~     4      1 00:00:~      0      0       1    0    <chr>   <NULL> 
##  5 5b66af23-~     5      1 00:00:~      0      0       2    1.23 <chr>   <dbl>  
##  6 89b7c8fc-~     6      1 00:00:~      0      1       2   NA    <chr>   <dbl>  
##  7 10272acd-~     7      1 00:00:~      0      1       2    1.10 <chr>   <dbl>  
##  8 340cb075-~     8      1 00:00:~      0      2       2    5.84 <chr>   <dbl>  
##  9 fdd953fb-~     9      1 00:00:~      0      8       3    0    <chr>   <dbl>  
## 10 b9a4c492-~    10      1 00:00:~      0      8       3    8.81 <chr>   <dbl>  
## # ... with 3,709 more rows, 148 more variables: under_pressure <lgl>,
## #   out <lgl>, counterpress <lgl>, off_camera <lgl>, type.id <int>,
## #   type.name <chr>, possession_team.id <int>, possession_team.name <chr>,
## #   play_pattern.id <int>, play_pattern.name <chr>, team.id <int>,
## #   team.name <chr>, tactics.formation <int>, tactics.lineup <list>,
## #   player.id <int>, player.name <chr>, position.id <int>, position.name <chr>,
## #   pass.length <dbl>, pass.angle <dbl>, pass.end_location <list>, ...
…
